if($scope.dashboarddata && $scope.datasetdata.length>0){
				var temp_string = '';
				for(var m=0;m<5;m++){
					var cnt = m+1;
					let tempfld = 'analyticscc__Connect_dashboard_String'+cnt+'__c';
					if($scope.dashboarddata[tempfld]!=''){
						temp_string += $scope.dashboarddata[tempfld];
					}
				}
				console.log($scope.selected.dashboard);
				console.log($scope.get_dashboard_name($scope.selected.dashboard));
				temp_string = temp_string.replace('#NewFolderId#',$scope.selected.folder);
				temp_string = temp_string.replace('#DashboardName#',$scope.get_dashboard_name($scope.selected.dashboard));
				for(var k=0;k<$scope.datasetdata.length;k++){
					var curnt_cnt = k+1;
					let exp = '#'+curnt_cnt+'DatasetId#';
					let exp2 = '#'+curnt_cnt+'DatasetAlias#';
					let datasetExp = new RegExp(exp,'g'); 
					let datasetExp2 = new RegExp(exp2,'g');
					temp_string = temp_string.replace(datasetExp,$scope.datasetdata[k].dataset_id);
					temp_string = temp_string.replace(datasetExp2,$scope.datasetdata[k].dataset_name);
					if($scope.datasetdata[k].selecteddim.length>0){
						console.log('in loop dim');
						console.log($scope.datasetdata[k].selecteddim);
						for(var d=0;d<$scope.datasetdata[k].selecteddim.length;d++){
							var curnt_temp = d+1;
							let exp = '#'+k+'label'+ d +'#';
							let exp2 = '#'+k+'alias'+ d +'#';
							let dimregExp = new RegExp(exp,'g'); 
							let dimregExp2 = new RegExp(exp2,'g');
							console.log('innnnnnn');
							console.log($scope.datasetdata[k].selecteddim[d]);
							console.log($scope.get_measure_name(k,$scope.datasetdata[k].selecteddim[d],'dimension','fullyQualifiedName'));
							temp_string = temp_string.replace(dimregExp,$scope.datasetdata[k].selecteddim[d]);
							temp_string = temp_string.replace(dimregExp2,$scope.get_measure_name(k,$scope.datasetdata[k].selecteddim[d],'dimension','fullyQualifiedName'));
						}
						/*if($scope.datasetdata[k].selecteddim.length < $scope.dashboarddata.analyticscc__No_of_Dimensions__c){
							for(var n=$scope.datasetdata[k].selecteddim.length;n<$scope.dashboarddata.analyticscc__No_of_Dimensions__c;n++){
								var Dimens = ', "{\\"display\\": \\"#label'+n+'#\\",\\"value\\": \\"#alias'+n+'#\\",\\"expression\\": \\"\'#alias'+n+'#\'\\",\\"alias\\": \\"#alias'+n+'#\\"}"';
								temp_string = temp_string.replace(Dimens,'');
								var Dimen = 'q = filter q by {{column(Filter_'+n+'.selection, [\\\\\\"#alias'+n+'#\\\\\\"]).asEquality(\\\\\\"#alias'+n+'#\\\\\\")}};';
								var DimenGrp = 'q = filter q by {{column(Grouping_'+n+'.selection, [\\\\\\"#alias'+n+'#\\\\\\"]).asEquality(\\\\\\"#alias'+n+'#\\\\\\")}};';
								var Dimens1 = '"Filter_'+n+'": { "datasets": [{ "id": "#1DatasetId#", "name": "#1DatasetAlias#" }], "isFacet": true, "isGlobal": false, "query": { "query": "{\\"measures\\":[[\\"count\\",\\"*\\"]],\\"groups\\":[\\"{{cell(Static_Dimensions.selection,0,\\\\\\"alias'+n+'\\\\\\").asGrouping()}}\\"]}", "version": -1 }, "selectMode": "multi", "type": "aggregateflex", "useGlobal": false, "visualizationParameters": { "options": {} } },';
								var Dimensionval = ',\\"value'+n+'\\": \\"\'#alias'+n+'#\'\\",\\"alias'+n+'\\": \\"#alias'+n+'#\\",\\"label'+n+'\\": \\"#label'+n+'#\\"';     
								temp_string =  temp_string.replace(Dimen,'');
								temp_string = temp_string.replace(DimenGrp,'');
								temp_string = temp_string.replace(Dimens1,'');
								temp_string = temp_string.replace(Dimensionval,'');
								var StrNew = '';
								var StrNew1 = '';
								var StrNew2 = '';
								if(n==1){
									var DimenVal = '"Filter_1": { "parameters": { "compact": false, "expanded": true, "exploreLink": false, "instant": true, "measureField": "count", "step": "Filter_1", "title": "#label1#" }, "type": "listselector" },';  
								}else{
									var DimenVal = '"Filter_"'+n+'": { "parameters": { "compact": false, "expanded": true, "exploreLink": false, "instant": true, "measureField": "count", "step": "Filter_"'+n+'", "title": "#label"'+n+'#" }, "type": "listselector" },';  
									var DimenFil1 = '{ "colspan": 2, "column": 1, "name": "Filter_"'+n+'", "row": 14, "rowspan": 1, "widgetStyle": { "backgroundColor": "rgba(230, 236, 242, 0)", "borderColor": "#E6ECF2", "borderEdges": [], "borderRadius": 0, "borderWidth": 4 } },';
									var DimenFil2 = '{ "colspan": 1, "column": 1, "name": "Filter_"'+n+'", "row": 8, "rowspan": 1, "widgetStyle": { "backgroundColor": "#E6ECF2", "borderColor": "#E6ECF2", "borderEdges": [], "borderRadius": 0, "borderWidth": 4 } },';
									var DimenFil3 = '{ "colspan": 1, "column": 3, "name": "Filter_"'+n+'", "row": 5, "rowspan": 1, "widgetStyle": { "backgroundColor": "#E6ECF2", "borderColor": "#E6ECF2", "borderEdges": [], "borderRadius": 0, "borderWidth": 4 } },';
									var DimenVal5 = '"Chart_"'+n+'": { "parameters": { "autoFitMode": "none", "showValues": true, "bins": { "breakpoints": { "high": 100, "low": 0 }, "bands": { "high": { "color": "#008000", "label": "" }, "low": { "color": "#B22222", "label": "" }, "medium": { "color": "#ffa500", "label": "" } } }, "legend": { "showHeader": true, "show": false, "customSize": "auto", "position": "right-top", "inside": false }, "axisMode": "multi", "visualizationType": "hbar", "exploreLink": true, "title": { "label": "", "align": "center", "subtitleLabel": "" }, "trellis": { "enable": false, "type": "x", "chartsPerLine": 4 }, "binValues": false, "measureAxis2": { "sqrtScale": false, "showTitle": true, "showAxis": true, "title": "", "referenceLine": null }, "measureAxis1": { "sqrtScale": false, "showTitle": false, "showAxis": true, "title": "", "referenceLine": null }, "step": "Grouping_"'+n+'", "theme": "wave", "dimensionAxis": { "showTitle": false, "customSize": "auto", "showAxis": true, "title": "" } }, "type": "chart" },';
									var DimenFil9  = '"Chart_Title_"'+n+'": { "parameters": { "fontSize": 20, "text": "{{ cell(Static_Dimensions.selection, 0, \\"label"'+n+'\\").asString()}}", "textAlignment": "center", "textColor": "#091A3E" }, "type": "text" },';
									var DimenFil7 = '{ "colspan": 3, "column": 12, "name": "Chart_Title_"'+n+'", "row": 14, "rowspan": 1, "widgetStyle": { "backgroundColor": "#F2F6FA", "borderColor": "#335779", "borderEdges": [ "bottom" ], "borderRadius": 4, "borderWidth": 4 } },';
									var DimenFil8 = '{ "colspan": 3, "column": 3, "name": "Chart_Title_"'+n+'", "row": 26, "rowspan": 1, "widgetStyle": { "backgroundColor": "#E6ECF2", "borderColor": "#335779", "borderEdges": [ "bottom" ], "borderRadius": 4, "borderWidth": 4 } },';
									var DimenFil6 = '{ "colspan": 4, "column": 0, "name": "Chart_Title_"'+n+'", "row": 46, "rowspan": 1, "widgetStyle": { "backgroundColor": "#E6ECF2", "borderColor": "#335779", "borderEdges": [ "bottom" ], "borderRadius": 4, "borderWidth": 4 } },';
									var DimenFil10 = '{ "colspan": 3, "column": 12, "name": "Chart_"'+n+'", "row": 15, "rowspan": 6, "widgetStyle": { "borderEdges": [] } },';
									var DimenFil11 = '{ "colspan": 3, "column": 3, "name": "Chart_"'+n+'", "row": 27, "rowspan": 4, "widgetStyle": { "borderEdges": [] } },';
									var DimenFil12 = '{ "colspan": 4, "column": 0, "name": "Chart_"'+n+'", "row": 47, "rowspan": 4, "widgetStyle": { "borderEdges": [] } },';
									var DimenFil4 = '"Grouping_"'+n+'": { "datasets": [{ "id": "#1DatasetId#", "name": "#1DatasetAlias#" }], "isFacet": true, "isGlobal": false, "query": { "query": "{\\"pigql\\": \\"q = load \\\\\\"#1DatasetAlias#\\\\\\"; q = filter q by {{cell(Static_Filter_1.selection,0, \\\\\\"value\\\\\\").asString()}}; q = group q by {{cell(Static_Dimensions.selection,0,\\\\\\"alias"'+n+'\\\\\\").asGrouping()}}; q = foreach q generate {{row(Static_Dimensions.selection, [0], [\\\\\\"value"'+n+'\\\\\\", \\\\\\"alias"'+n+'\\\\\\"]).asProjection()}}, {{row(Static_Measures.selection, [], [\\\\\\"expression\\\\\\",\\\\\\"alias\\\\\\"]).asProjection()}};\\n; q = order q by {{column(Static_Measures.selection, [\\\\\\"alias\\\\\\"])..asGrouping()}} {{column(Static_Order.selection, [\\\\\\"value\\\\\\"]).asObject()}};\\",\\"measures\\": \\"{{column(Static_Measures.selection, [\\\\\\"cf\\\\\\"]).asObject()}}\\",\\"autoFilter\\": true,\\"groups\\": [\\"{{cell(Static_Dimensions.selection,0, \\\\\\"alias"'+n+'\\\\\\").asGrouping()}}\\"]}", "version": -1 }, "selectMode": "multi", "type": "aggregateflex", "useGlobal": true, "visualizationParameters": { "visualizationType": "hbar", "options": {} } },';
									StrNew = '"Chart_Title_"'+n+'": { "parameters": { "fontSize": 20, "text": "", "textAlignment": "center", "textColor": "#fff" }, "type": "text" },';
									StrNew1 = '"Chart_"'+n+'": { "parameters": { "fontSize": 20, "text": "", "textAlignment": "center", "textColor": "#fff" }, "type": "text" },';
									StrNew2 = '"Filter_"'+n+'": { "parameters": { "fontSize": 20, "text": "", "textAlignment": "center", "textColor": "#fff" }, "type": "text" },';
								}
								var Strs='\"#alias'+n+'#\",';
								temp_string =  temp_string.replace(DimenVal,StrNew2);
								temp_string =  temp_string.replace(DimenFil1,'');
								temp_string =  temp_string.replace(DimenFil2,'');
								temp_string =  temp_string.replace(DimenFil3,'');
								temp_string =  temp_string.replace(Strs,'');
								temp_string =  temp_string.replace(DimenFil4,'')
								temp_string =  temp_string.replace(DimenVal5,StrNew1)
								temp_string =  temp_string.replace(DimenFil6,'')
								temp_string =  temp_string.replace(DimenFil7,'');
								temp_string =  temp_string.replace(DimenFil8,'')
								temp_string = temp_string.replace(DimenFil9,StrNew)
								temp_string = temp_string.replace(DimenFil10,'')
								temp_string = temp_string.replace(DimenFil11,'')
								temp_string = temp_string.replace(DimenFil12,'');
							}				
						}*/
					}else{
						/*var DimenAll = '"Static_Group": { "datasets": [], "dimensions": [], "groups": [], "isFacet": false, "isGlobal": false, "numbers": [], "selectMode": "singlerequired", "strings": [], "type": "staticflex", "useGlobal": false, "values": [ "{\\"display\\": \\"#label1\\",\\"value\\": \\"#alias1#\\",\\"expression\\": \\"\'#alias1#\'\\",\\"alias\\": \\"#alias1#\\"}", "{\\"display\\": \\"#label2#\\",\\"value\\": \\"#alias2#\\",\\"expression\\": \\"\'#alias2#\'\\",\\"alias\\": \\"#alias2#\\"}", "{\\"display\\": \\"#label3#\\",\\"value\\": \\"#alias3#\\",\\"expression\\": \\"\'#alias3#\'\\",\\"alias\\": \\"#alias3#\\"}", "{\\"display\\": \\"#label4#\\",\\"value\\": \\"#alias4#\\",\\"expression\\": \\"\'#alias4#\'\\",\\"alias\\": \\"#alias4#\\"}", "{\\"display\\": \\"#label5#\\",\\"value\\": \\"#alias5#\\",\\"expression\\": \\"\'#alias5#\'\\",\\"alias\\": \\"#alias5#\\"}", "{\\"display\\": \\"#label6#\\",\\"value\\": \\"#alias6#\\",\\"expression\\": \\"\'#alias6#\'\\",\\"alias\\": \\"#alias6#\\"}", "{\\"display\\": \\"#label7#\\",\\"value\\": \\"#alias7#\\",\\"expression\\": \\"\'#alias7#\'\\",\\"alias\\": \\"#alias7#\\"}", "{\\"display\\": \\"#label8#\\",\\"value\\": \\"#alias8#\\",\\"expression\\": \\"\'#alias8#\'\\",\\"alias\\": \\"#alias8#\\"}" ] },';
						temp_string =  temp_string.replace(DimenAll,'');

						var DimensLabel = '"Additional_Feature_List_2": { "parameters": { "compact": false, "expanded": true, "exploreLink": false, "instant": true, "step": "Static_Group", "title": "Choose Grouping" }, "type": "listselector" },';
						temp_string =  temp_string.replace(DimensLabel,'');

						var DimensLabel1 = '{ "colspan": 3, "column": 12, "name": "Additional_Feature_List_2", "row": 23, "rowspan": 1, "widgetStyle": { "borderEdges": [] } },';
						temp_string =  temp_string.replace(DimensLabel1,'');

						var DimensLabel2 = '{ "colspan": 2, "column": 2, "name": "Additional_Feature_List_2", "row": 58, "rowspan": 1, "widgetStyle": { "borderEdges": [] } },';
						temp_string =  temp_string.replace(DimensLabel2,'');

						var DimensLabel3 = '{ "colspan": 1, "column": 5, "name": "Additional_Feature_List_2", "row": 32, "rowspan": 1, "widgetStyle": { "borderEdges": [] } },';
						temp_string =  temp_string.replace(DimensLabel3,'');*/
					}
					if($scope.datasetdata[k].selecteddate.length>0){
						for(var d=0;d<$scope.datasetdata[k].selecteddate.length;d++){
							var curnt_temp = d+1;
							console.log('innnnnnndate');
							let exp = '#'+k+'datelabel'+ d +'#';
							let exp2 = '#'+k+'datealias'+ d +'#';
							let dateregExp = new RegExp(exp,'g'); 
							let dateregExp2 = new RegExp(exp2,'g');
							temp_string = temp_string.replace(dateregExp,$scope.datasetdata[k].selecteddate[d]);
							temp_string = temp_string.replace(dateregExp2,$scope.get_measure_name(k,$scope.datasetdata[k].selecteddate[d],'date','fullyQualifiedName'));
						}
					}
					if($scope.datasetdata[k].measuretext.length>0){
						for(var d=0;d<$scope.datasetdata[k].measuretext.length;d++){
							var curnt_temp = d+1;
							console.log('innnnnnnmeasure');
							let exp = '#'+k+'MeasureLabel'+ curnt_temp +'#';
							let exp2 = '#'+k+'MeasureExpression'+ curnt_temp +'#';
							let exp3 = '#'+k+'MeasureAlias'+ curnt_temp +'#';
							let exp4 = '[\\"#'+k+'CompactMeasureAPI'+ curnt_temp +'#\\"]';
							let mesregExp = new RegExp(exp,'g'); 
							let mesregExp2 = new RegExp(exp2,'g');
							let mesregExp3 = new RegExp(exp3,'g');
							let mesregExp4 = new RegExp(exp4,'g');
							temp_string = temp_string.replace(mesregExp,$scope.datasetdata[k].metrics[d].operation +' of '+$scope.datasetdata[k].measuretext[d]);
							if($scope.datasetdata[k].metrics[d].operation!='count'){
								temp_string = temp_string.replace(mesregExp2,$scope.datasetdata[k].metrics[d].operation+"('"+$scope.datasetdata[k].metrics[d].metricval+"')");
								temp_string = temp_string.replace(mesregExp3,$scope.datasetdata[k].metrics[d].operation +'_'+$scope.datasetdata[k].measuretext[d]);
								temp_string = temp_string.replace(mesregExp4,'[\"'+$scope.datasetdata[k].metrics[d].operation+'\",'+'\"'+$scope.datasetdata[k].metrics[d].metricval+'\"]');
							}else{
								temp_string = temp_string.replace(mesregExp2,"count('q')");
								temp_string = temp_string.replace(mesregExp3,"count");	
								temp_string = temp_string.replace(mesregExp4,'[\"count\",\"*\"]');
							}
						}
					}
					temp_string = temp_string.replace(/'#'+k+'FilterLabel1#'/g,'All');
					temp_string = temp_string.replace(/'#'+k+'FilterLabel2#'/g,'');
					temp_string = temp_string.replace(/'#'+k+'FilterLabel3'/g,'');
					temp_string = temp_string.replace(/'#'+k+'FilterLabel4'/g,'');
					temp_string = temp_string.replace(/'#'+k+'FilterLabel5'/g,'');
					temp_string = temp_string.replace(/'#'+k+'Filter1#'/g,'Name in all');
					temp_string = temp_string.replace(/'#'+k+'Filter2#'/g,'');
					temp_string = temp_string.replace(/'#'+k+'Filter3#'/g,'');
					temp_string = temp_string.replace(/'#'+k+'Filter4#'/g,'');
					temp_string = temp_string.replace(/'#'+k+'Filter5#'/g,'');
					console.log(temp_string);
				}
			}